%YAML 1.1
%TAG !u! tag:unity3d.com,2011:
--- !u!114 &11400000
MonoBehaviour:
  m_ObjectHideFlags: 0
  m_CorrespondingSourceObject: {fileID: 0}
  m_PrefabInstance: {fileID: 0}
  m_PrefabAsset: {fileID: 0}
  m_GameObject: {fileID: 0}
  m_Enabled: 1
  m_EditorHideFlags: 0
  m_Script: {fileID: 11500000, guid: eebb0d87c7cec6544beefa52705e3fee, type: 3}
  m_Name: DefaultFlock
  m_EditorClassIdentifier: 
  _behaviours:
  - {fileID: 11400000, guid: ac6e6ce6e166e86438db4fa9c2d77bdd, type: 2}
  - {fileID: 11400000, guid: 20b8a64c1ebd10f4bb78fa602998fac9, type: 2}
  - {fileID: 11400000, guid: 9855961af07ac77469d0501255e18bcd, type: 2}
  - {fileID: 11400000, guid: 9807a54b24052024ea82789692988f39, type: 2}
  _weights:
  - 4
  - 1
  - 1
  - 1
